<svg id="Group_6" data-name="Group 6" xmlns="http://www.w3.org/2000/svg" viewBox="0 0 198.068 42.449">
  <defs>
    <style>
      .cls-1 {
        fill: #fff;
      }

      .cls-2 {
        fill: #e6e6e6;
      }
    </style>
  </defs>
  <g id="Group_3" data-name="Group 3">
    <g id="Group_2" data-name="Group 2">
      <path id="Path_1" data-name="Path 1" class="cls-1" d="M362.639,35.385l-3.522,7.065H351.3L372.518,0l14.15,28.3h-8l-6.336-12.288L366,28.5ZM393.55,42.45h-7.814l-3.543-7.065h7.814Z" transform="translate(-311.262)"/>
      <path id="Path_2" data-name="Path 2" class="cls-1" d="M741.424,15.806l-4.474,5.769L720.189.36h9.13Zm-4.474,5.587,4.474,5.769L729.319,42.607h-9.13Zm8.947,0-4.474-5.769L753.529.178h8.927Zm0,0,16.559,21.215h-8.927L741.424,27.162Z" transform="translate(-638.103 -0.158)"/>
      <g id="Group_1" data-name="Group 1" transform="translate(0 0.02)">
        <path id="Path_3" data-name="Path 3" class="cls-1" d="M36.3,6.311a20.343,20.343,0,0,1,6.134,15.081A21.15,21.15,0,0,1,36.3,36.473c-4.089,4.292-9.13,6.134-15.081,6.134A20.848,20.848,0,0,1,6.134,36.473,20.521,20.521,0,0,1,0,21.392,20.135,20.135,0,0,1,3.907,9.1l5.2,5.2a13.821,13.821,0,0,0-2.045,7.267,14.472,14.472,0,0,0,4.089,10.061,13.939,13.939,0,0,0,20.122,0,13.605,13.605,0,0,0,4.089-10.061,14.472,14.472,0,0,0-4.089-10.061A13.606,13.606,0,0,0,21.215,7.424,12.99,12.99,0,0,0,14.15,9.286l-5.2-5.2A20.135,20.135,0,0,1,21.235.177,20.476,20.476,0,0,1,36.3,6.311Z" transform="translate(0 -0.177)"/>
      </g>
    </g>
  </g>
  <g id="Group_5" data-name="Group 5" transform="translate(136.316)">
    <path id="Path_4" data-name="Path 4" class="cls-2" d="M1246.061,23.243a8.689,8.689,0,0,1-6.395,2.335h-8.586V0h8.586a8.689,8.689,0,0,1,6.395,2.335c2.443,2.443,2.479,6.646,2.479,10.454S1248.5,20.8,1246.061,23.243ZM1244.7,3.7a7.208,7.208,0,0,0-5.5-1.976h-6.179V23.854h6.179a7.209,7.209,0,0,0,5.5-1.976c1.9-2.012,1.9-5.712,1.9-9.089S1246.6,5.712,1244.7,3.7Z" transform="translate(-1231.081)"/>
    <path id="Path_5" data-name="Path 5" class="cls-2" d="M1438.083,25.578V0H1453.6V1.724h-13.579V11.819h11.568v1.724h-11.568v10.31H1453.6v1.724h-15.519Z" transform="translate(-1414.489)"/>
    <g id="Group_4" data-name="Group 4" transform="translate(43.934)">
      <path id="Path_6" data-name="Path 6" class="cls-2" d="M1630.394,12.411,1637.691,0h-2.227l-6.143,10.741L1623.213,0h-2.263l7.329,12.466,1.017-1.7Z" transform="translate(-1620.447)"/>
      <path id="Path_7" data-name="Path 7" class="cls-2" d="M1626.458,109.378l-1.072,1.742-1.017-1.752-7.832,13.112h2.191l6.682-11.388,6.682,11.388h2.263Z" transform="translate(-1616.537 -96.903)"/>
    </g>
  </g>
</svg>
